{
  "_embedded" : {
    "appointmentEntities" : [ {
      "startTime" : "2022-09-14T16:49:00",
      "endTime" : "2022-09-14T20:49:00",
      "title" : "Appt. #23",
      "location" : "460 J Street",
      "description" : "",
      "restrictions" : "",
      "totalSlots" : 4,
      "tags" : [ ],
      "registeredUsers" : [ ],
      "canceled" : false
    }, {
      "startTime" : "2022-09-16T14:49:00",
      "endTime" : "2022-09-16T16:49:00",
      "title" : "Appt. #25",
      "location" : "500 J Street",
      "description" : "",
      "restrictions" : "",
      "totalSlots" : 6,
      "tags" : [ ],
      "registeredUsers" : [ ],
      "canceled" : false
    } ]
  },
  "_links" : {
    "first" : {
      "href" : "http://localhost:8080/api/v1/appointments/available?days=30&page=0&size=2"
    },
    "self" : {
      "href" : "http://localhost:8080/api/v1/appointments/available?days=30&page=0&size=2"
    },
    "next" : {
      "href" : "http://localhost:8080/api/v1/appointments/available?days=30&page=1&size=2"
    },
    "last" : {
      "href" : "http://localhost:8080/api/v1/appointments/available?days=30&page=9&size=2"
    }
  },
  "page" : {
    "size" : 2,
    "totalElements" : 19,
    "totalPages" : 10,
    "number" : 0
  }
}